ουΤ,****-****-****-5208
ΞΫJ[h,rbNJSuicaJ[h
¨x₯ϊ,2018N0205ϊ
‘ρ¨x₯ΰz,"20,000"

²pNϊ,²pΣ,²pz,₯ίz,²Ώzi€ΏθΏE§j,x₯ζͺiρj,‘ρρ,‘ρ²ΏzEΩΟΰi€ΏθΏE§j,»nΚέz,ΚέͺΜ,·Z[g
****-****-****-5208 hoge
2017/12/09,εδ¬wϋ@‘`kssdi`[Wj,"10,000",,"10,000",Pρ₯,,"10,000",,   ,
2017/12/22,εδ¬wϋ@‘`kssdi`[Wj,"10,000",,"10,000",Pρ₯,,"10,000",,   ,
